,mu,std
event_HT,770.8594644678395,348.74598061881767
event_bHT,585.4813326171898,280.3624420163816
event_MLL,33.75384347444668,43.71966520479516
ratioJetHT,0.34151080278900103,0.10998753843794877
deltaPhibJetMet,2.0455310609270203,0.8791262467734302
min_bjet_dr,0.9924861547444453,0.4130732367518671
deltaR_bjetLep,2.215745553523837,0.9015188454679152
min_dr_lepb,-3.1143857664785797,1.7210659022648123
max_dr_lepb,3.198665643778858,1.6956507875050846
lepCharge,0.03056808765307062,0.5806513646452814
dileptonMass,146.13733306904433,109.3490130859142
event_MET,172.82170591292027,121.07448866923693
