{
  "model_path": "model.h5",
  "input_tree_name": "tree",
  "input_type": "root",
  "output_tree_name": "tree",
  "input_branches": ["event_HT","event_bHT", "event_MLL", "ratioJetHT","deltaPhibJetMet", "min_bjet_dr", "deltaR_bjetLep", "min_dr_lepb", "max_dr_lepb", "nJets","nbJets", "dileptonMass", "event_MET"],
  "evaluation_branches": ["event_HT","event_bHT", "event_MLL", "ratioJetHT","deltaPhibJetMet", "min_bjet_dr", "deltaR_bjetLep", "min_dr_lepb", "max_dr_lepb", "nJets","dileptonMass", "event_MET"],
  "output_column_name": "vll",
  "mass_point": 500
}

